2-Filtering-Aggregation
…
Feature aggregation

Read and preprocess DeepION clustering outputs

We have supplied the clustering output of DeepION. Each row in
DeepION’s output represents an isotope grouping. This process works for
any clustering schema (not unique to DeepION) that produces outputs
similar to DeepION, though it may require some adaptation.

deepion_iso_output_file <- "Outputs/DeepION_output_col_mode_super_image_all_features.txt"
iso <- readr::read_csv(deepion_iso_output_file, show_col_types = F) %>% 
  mutate(group_id = row_number())
iso

## # A tibble: 426 × 8
##    monoisotope isotope_1 isotope_2 isotope_type_1 isotope_type_2 charge_1
##          <dbl>     <dbl>     <dbl>          <dbl>          <dbl>    <dbl>
##  1        887.         0         0              0              0        0
##  2        897.         0         0              0              0        0
##  3        898.         0         0              0              0        0
##  4        900.         0         0              0              0        0
##  5        901.         0         0              0              0        0
##  6        914.         0         0              0              0        0
##  7       1002.         0         0              0              0        0
##  8       1019.         0         0              0              0        0
##  9       1035.         0         0              0              0        0
## 10       1040.         0         0              0              0        0
## # ℹ 416 more rows
## # ℹ 2 more variables: charge_2 <dbl>, group_id <int>

Reshape so that each row is a feature.

iso <- iso %>% 
  pivot_longer(monoisotope : isotope_2, 
               names_to = "isotope", 
               names_prefix = "isotope_", 
               values_to = "mz") %>% 
  filter(mz > 0) %>%
  dplyr::select(mz, group_id)
iso

## # A tibble: 503 × 2
##       mz group_id
##    <dbl>    <int>
##  1  887.        1
##  2  897.        2
##  3  898.        3
##  4  900.        4
##  5  901.        5
##  6  914.        6
##  7 1002.        7
##  8 1019.        8
##  9 1035.        9
## 10 1040.       10
## # ℹ 493 more rows
Unfortunately DeepION does not preserve all decimal points of the
original m/z values. We will need to do a fuzzy merge to get the
original values for Cardinal.

iso_merged <- iso %>% 
  difference_right_join(tibble(mz = as.numeric(mz(mse_list_pp_normalized[[1]])), 
                              feature_id = 1:nrow(fData(mse_list_pp_normalized[[1]]))),
                       by = 'mz',
                       max_dist = 0.000001,
                       distance_col = "mz_delta") %>% 
  dplyr::select(group_id, feature_id, `mz.y`) %>% 
  dplyr::rename("mz" = `mz.y` )
iso_merged

## # A tibble: 431 × 3
##    group_id feature_id    mz
##       <int>      <int> <dbl>
##  1        1          1  887.
##  2        2          2  897.
##  3        3          3  898.
##  4        4          4  900.
##  5        5          5  901.
##  6        6          6  914.
##  7        7          7 1002.
##  8        8          8 1019.
##  9        9          9 1035.
## 10       10         10 1040.
## # ℹ 421 more rows
…
